# Blender v2.57 (sub 0) OBJ File: ''
# www.blender.org
mtllib untitled3.mtl
o Mesh_default
v 1.155947 -0.932858 -0.586609
v 1.146509 1.375757 -0.341774
v -0.535269 1.379781 -1.289155
v -0.325505 1.716039 0.124407
v 1.049687 1.406858 0.522446
v -0.624531 -0.405568 -1.959991
v 2.728657 1.420860 -0.173265
v 1.484147 0.417640 0.145310
v -0.558774 1.375757 -1.363509
v 1.480360 -0.385338 -0.280586
v 0.851988 1.371127 -0.915107
v -1.720864 1.217373 -0.128113
v 0.849872 -0.984515 0.952924
v 2.209370 -0.059570 -0.341161
v -2.015467 -0.076651 0.997183
v -1.132107 1.371127 -1.068988
v -2.122289 0.535376 0.157523
v -1.214183 -0.076651 -1.798467
v 0.122053 1.371112 -1.362795
v 2.594180 1.436849 0.005263
v 1.482684 0.178552 -0.476889
v -0.374523 0.535375 -1.905289
v 0.047532 2.033820 -0.322834
v -2.964190 1.071030 -0.230559
v 1.742991 -0.405568 -0.407531
v -0.092593 1.716039 0.108505
v 0.369609 -0.932858 1.372947
v 2.135412 0.437722 0.391718
v 0.653610 1.421852 1.060755
v 0.794306 1.392528 -0.870440
v 1.317037 -0.378684 1.319951
v 1.200846 1.463790 0.414348
v -0.341407 1.716039 -0.108505
v -2.887761 1.190084 0.034602
v 2.068943 0.558803 -0.138745
v 1.102951 -0.378684 -1.534037
v -1.835204 0.477549 -1.057767
v 1.401204 0.477549 1.057767
v 0.840767 0.477549 -1.618204
v 1.717936 -0.377431 0.488506
v -1.483687 1.406858 -0.522446
v -0.705506 -0.377431 1.934936
v 0.145543 -0.895905 -1.466550
v -1.793285 1.047959 -0.217803
v 1.145795 1.371112 0.339053
v 1.488545 -0.320317 0.454370
v -0.538540 2.056580 -0.273428
v -1.006750 -0.927719 -1.298209
v 0.564334 1.477904 1.255265
v 0.305446 1.406858 -1.266687
v 0.698107 1.371127 1.068988
v 0.189627 2.086384 -0.033276
v -2.607867 -0.128433 -0.200001
v 0.003598 2.065033 0.334311
v 1.038265 1.477904 -0.781334
v -3.179237 0.432705 -0.043871
v -2.827314 0.348070 -0.147573
v -2.151936 -0.377431 -0.488506
v -3.191971 0.909004 -0.220775
v -1.671449 -0.917039 0.453758
v -0.739446 1.406858 1.266687
v -2.133516 -0.386177 -0.184471
v -1.751037 -0.378684 -1.319951
v -1.812935 1.016404 0.133822
v -1.163973 -1.019394 -0.575307
v -2.210036 -0.160731 0.153731
v -0.998334 1.477904 -1.255265
v 1.072155 1.379781 -0.318268
v -0.631348 1.463790 1.417846
v 2.983432 1.389701 0.025318
v -0.490428 2.056580 0.321540
v -1.472265 1.477904 0.781334
v -2.896020 0.949473 -0.165518
v -1.277755 1.421852 0.870610
v 2.171537 0.327784 -0.445156
v -2.913052 0.162326 0.247580
v -2.665327 1.066015 0.243296
v -2.933155 0.859700 0.151116
v -1.169924 -0.984515 1.066872
v -1.735161 1.189276 0.201030
v -1.634846 1.463790 -0.414348
v 0.735924 -0.984515 -1.066872
v 2.706832 1.081838 -0.004788
v 1.249550 -0.895905 0.362543
v -0.184555 1.651660 -0.214905
v -2.124744 -0.407039 0.155765
v 0.197348 1.463790 -1.417846
v -0.108495 1.716039 -0.124407
v -1.274767 0.477549 1.618204
v 0.780183 -0.076651 1.798467
v -1.579795 1.371112 -0.339052
v -0.556053 1.371112 1.362795
v 3.201323 1.448985 -0.088402
v 2.352182 1.262403 -0.071714
v 2.295826 0.062586 0.309172
v 0.271506 -0.377431 -1.934936
v -1.580509 1.375757 0.341773
v -1.506155 1.379781 0.318269
v -1.087440 1.392528 -1.011306
v 0.190531 -0.405568 1.959991
v 2.671519 1.409796 0.178825
v -2.227397 -0.149650 -0.099446
v -3.106924 0.867600 0.229941
v 2.899856 1.371697 -0.105841
v 0.124774 1.375757 1.363509
v -1.285987 1.371127 0.915108
v -0.059477 0.535376 1.905289
v 1.581467 -0.076651 -0.997183
v 2.591862 1.355411 -0.008053
v 0.101269 1.379781 1.289155
v 1.688289 0.535376 -0.157523
v -0.579543 -0.895905 1.466550
v -1.683550 -0.895905 -0.362543
v -1.536951 -0.378684 1.534037
v 3.087415 1.451756 0.158798
usemtl gold
s off
f 55 2 45
f 64 77 73
f 52 26 88
f 70 115 93
f 49 105 92
f 2 55 11
f 104 70 7
f 16 67 81
f 55 108 39
f 20 94 101
f 63 37 18
f 103 77 34
f 109 7 20
f 44 73 24
f 5 85 29
f 100 112 27
f 26 52 54
f 104 7 109
f 13 31 100
f 36 82 43
f 85 33 88
f 96 22 39
f 84 25 40
f 72 15 89
f 79 114 60
f 43 6 96
f 114 79 112
f 49 90 38
f 69 89 107
f 46 14 95
f 115 101 83
f 90 49 107
f 13 1 84
f 80 34 77
f 43 96 36
f 65 13 79
f 76 103 56
f 94 20 7
f 57 73 78
f 112 100 42
f 72 97 91
f 113 65 60
f 89 114 42
f 93 83 7
f 81 37 17
f 36 39 108
f 107 49 69
f 60 15 102
f 59 34 24
f 1 13 82
f 48 82 65
f 17 58 102
f 101 115 20
f 52 47 71
f 35 21 8
f 55 39 87
f 70 93 7
f 44 24 12
f 91 81 72
f 90 100 31
f 105 49 51
f 112 42 114
f 85 99 41
f 33 85 74
f 84 40 31
f 22 6 18
f 18 67 22
f 3 85 50
f 94 35 28
f 15 72 17
f 43 82 48
f 26 54 71
f 52 23 47
f 4 74 29
f 62 53 57
f 31 13 84
f 76 66 102
f 114 89 15
f 84 1 25
f 40 111 38
f 69 92 106
f 45 32 55
f 58 17 37
f 112 79 27
f 65 82 13
f 39 36 96
f 95 83 101
f 59 53 56
f 109 20 115
f 48 63 6
f 67 18 37
f 17 102 15
f 87 19 11
f 11 55 87
f 75 7 83
f 34 59 103
f 68 85 5
f 32 38 111
f 76 86 66
f 67 9 19
f 37 63 58
f 83 93 115
f 111 25 108
f 75 94 7
f 92 69 49
f 107 100 90
f 113 60 58
f 14 10 21
f 71 4 26
f 32 45 51
f 51 49 32
f 27 79 13
f 85 68 30
f 28 8 46
f 67 37 81
f 25 1 82
f 78 103 57
f 15 60 114
f 9 67 16
f 98 74 41
f 12 24 34
f 21 75 14
f 33 47 23
f 6 43 48
f 111 40 25
f 107 42 100
f 31 38 90
f 102 103 76
f 60 65 79
f 47 33 4
f 108 55 111
f 35 8 28
f 83 95 14
f 42 107 89
f 81 91 16
f 49 38 32
f 28 101 94
f 22 96 6
f 63 48 113
f 21 35 75
f 85 3 99
f 83 14 75
f 52 71 54
f 38 31 40
f 97 72 106
f 19 87 67
f 56 53 76
f 85 88 26
f 106 72 69
f 46 95 28
f 73 57 59
f 65 113 48
f 100 27 13
f 23 88 33
f 60 102 58
f 108 25 36
f 4 71 47
f 59 24 73
f 82 36 25
f 101 28 95
f 78 73 77
f 18 6 63
f 61 29 74
f 85 30 50
f 12 34 80
f 77 64 80
f 22 67 87
f 115 70 109
f 103 102 57
f 57 102 62
f 87 39 22
f 94 75 35
f 41 74 85
f 86 76 53
f 53 62 86
f 10 14 46
f 110 29 61
f 74 4 33
f 59 57 53
f 59 56 103
f 29 26 4
f 72 89 69
f 88 23 52
f 17 72 81
f 73 44 64
f 26 29 85
f 111 55 32
f 77 103 78
f 113 58 63